{"geocoded_waypoints":[{"geocoder_status":"OK","place_id":"ChIJ8fm-EyIUrjsRnRPdM1vgXNw","types":["street_address"]},{"geocoder_status":"OK","place_id":"ChIJCbHbMqUUrjsRmAkuNoCaMl8","types":["establishment","point_of_interest"]}],"routes":[{"bounds":{"south":12.89188,"west":77.61827000000001,"north":12.959570000000001,"east":77.64228},"copyrights":"Map data ©2017 Google","legs":[{"distance":{"text":"12.2 km","value":12244},"duration":{"text":"35 mins","value":2073},"end_address":"AKR Tech Park- B Block, 7th Mile, Off Hosur Road, Kudlu Gate, Krishna Reddy Industrial Area, Garebhavipalya, Singasandra, Bengaluru, Karnataka 560068, India","end_location":{"lat":12.8928959,"lng":77.64228379999997},"start_address":"1316, Link Rd 4, 2nd stage Indiranagar, BDA Colony, Domlur Village, Indiranagar, Bengaluru, Karnataka 560007, India","start_location":{"lat":12.9595745,"lng":77.63008450000007},"steps":[{"distance":{"text":"0.2 km","value":201},"duration":{"text":"1 min","value":26},"end_location":{"lat":12.9579251,"lng":77.63082199999997},"polyline":{"points":"idbnA_cyxMfEyAbBs@HCPA"},"start_location":{"lat":12.9595745,"lng":77.63008450000007},"travel_mode":"DRIVING","encoded_lat_lngs":"idbnA_cyxMfEyAbBs@HCPA","path":[{"lat":12.959570000000001,"lng":77.63008},{"lat":12.958570000000002,"lng":77.63053000000001},{"lat":12.958070000000001,"lng":77.63079},{"lat":12.958020000000001,"lng":77.63081000000001},{"lat":12.957930000000001,"lng":77.63082}],"lat_lngs":[{"lat":12.959570000000001,"lng":77.63008},{"lat":12.958570000000002,"lng":77.63053000000001},{"lat":12.958070000000001,"lng":77.63079},{"lat":12.958020000000001,"lng":77.63081000000001},{"lat":12.957930000000001,"lng":77.63082}],"instructions":"Head <b>southeast</b>","maneuver":"","start_point":{"lat":12.9595745,"lng":77.63008450000007},"end_point":{"lat":12.9579251,"lng":77.63082199999997}},{"distance":{"text":"0.9 km","value":878},"duration":{"text":"2 mins","value":124},"end_location":{"lat":12.9508667,"lng":77.63434559999996},"maneuver":"roundabout-left","polyline":{"points":"azanAsgyxM@AA?@A?A?A?A?A@??A@A?A@?@A@??A@?@?@??A@?@?@?@@@?@?hE_Bt@Yv@WzAo@dAc@tH{CpJ}D`@KxDyAFE"},"start_location":{"lat":12.9579251,"lng":77.63082199999997},"travel_mode":"DRIVING","encoded_lat_lngs":"azanAsgyxM@AA?@A?A?A?A?A@??A@A?A@?@A@??A@?@?@??A@?@?@?@@@?@?hE_Bt@Yv@WzAo@dAc@tH{CpJ}D`@KxDyAFE","path":[{"lat":12.957930000000001,"lng":77.63082},{"lat":12.957920000000001,"lng":77.63083},{"lat":12.957930000000001,"lng":77.63083},{"lat":12.957920000000001,"lng":77.63084},{"lat":12.957920000000001,"lng":77.63085000000001},{"lat":12.957920000000001,"lng":77.63086000000001},{"lat":12.957920000000001,"lng":77.63087},{"lat":12.957920000000001,"lng":77.63088},{"lat":12.957910000000002,"lng":77.63088},{"lat":12.957910000000002,"lng":77.63089000000001},{"lat":12.9579,"lng":77.63090000000001},{"lat":12.9579,"lng":77.63091},{"lat":12.95789,"lng":77.63091},{"lat":12.957880000000001,"lng":77.63092},{"lat":12.957870000000002,"lng":77.63092},{"lat":12.957870000000002,"lng":77.63093},{"lat":12.957860000000002,"lng":77.63093},{"lat":12.95785,"lng":77.63093},{"lat":12.957840000000001,"lng":77.63093},{"lat":12.957840000000001,"lng":77.63094000000001},{"lat":12.957830000000001,"lng":77.63094000000001},{"lat":12.957820000000002,"lng":77.63094000000001},{"lat":12.95781,"lng":77.63094000000001},{"lat":12.9578,"lng":77.63093},{"lat":12.957790000000001,"lng":77.63093},{"lat":12.957780000000001,"lng":77.63093},{"lat":12.95677,"lng":77.63141},{"lat":12.956500000000002,"lng":77.63154},{"lat":12.956220000000002,"lng":77.63166000000001},{"lat":12.955760000000001,"lng":77.6319},{"lat":12.95541,"lng":77.63208},{"lat":12.95386,"lng":77.63286000000001},{"lat":12.952010000000001,"lng":77.63381000000001},{"lat":12.95184,"lng":77.63387},{"lat":12.95091,"lng":77.63432},{"lat":12.950870000000002,"lng":77.63435000000001}],"lat_lngs":[{"lat":12.957930000000001,"lng":77.63082},{"lat":12.957920000000001,"lng":77.63083},{"lat":12.957930000000001,"lng":77.63083},{"lat":12.957920000000001,"lng":77.63084},{"lat":12.957920000000001,"lng":77.63085000000001},{"lat":12.957920000000001,"lng":77.63086000000001},{"lat":12.957920000000001,"lng":77.63087},{"lat":12.957920000000001,"lng":77.63088},{"lat":12.957910000000002,"lng":77.63088},{"lat":12.957910000000002,"lng":77.63089000000001},{"lat":12.9579,"lng":77.63090000000001},{"lat":12.9579,"lng":77.63091},{"lat":12.95789,"lng":77.63091},{"lat":12.957880000000001,"lng":77.63092},{"lat":12.957870000000002,"lng":77.63092},{"lat":12.957870000000002,"lng":77.63093},{"lat":12.957860000000002,"lng":77.63093},{"lat":12.95785,"lng":77.63093},{"lat":12.957840000000001,"lng":77.63093},{"lat":12.957840000000001,"lng":77.63094000000001},{"lat":12.957830000000001,"lng":77.63094000000001},{"lat":12.957820000000002,"lng":77.63094000000001},{"lat":12.95781,"lng":77.63094000000001},{"lat":12.9578,"lng":77.63093},{"lat":12.957790000000001,"lng":77.63093},{"lat":12.957780000000001,"lng":77.63093},{"lat":12.95677,"lng":77.63141},{"lat":12.956500000000002,"lng":77.63154},{"lat":12.956220000000002,"lng":77.63166000000001},{"lat":12.955760000000001,"lng":77.6319},{"lat":12.95541,"lng":77.63208},{"lat":12.95386,"lng":77.63286000000001},{"lat":12.952010000000001,"lng":77.63381000000001},{"lat":12.95184,"lng":77.63387},{"lat":12.95091,"lng":77.63432},{"lat":12.950870000000002,"lng":77.63435000000001}],"instructions":"At the roundabout, take the <b>1st</b> exit","start_point":{"lat":12.9579251,"lng":77.63082199999997},"end_point":{"lat":12.9508667,"lng":77.63434559999996}},{"distance":{"text":"1.6 km","value":1566},"duration":{"text":"4 mins","value":226},"end_location":{"lat":12.9386516,"lng":77.63269450000007},"maneuver":"straight","polyline":{"points":"}m`nAu}yxMHEXQFEDCHEdUaHRENCL?F@PFRHJDnK`EhDxAfA`@n@V`Bn@pAj@\\Lh@dAhBtETHD@D@J@H@R@b@C|I_CL?D?@?D?B?B@DDLP"},"start_location":{"lat":12.9508667,"lng":77.63434559999996},"travel_mode":"DRIVING","encoded_lat_lngs":"}m`nAu}yxMHEXQFEDCHEdUaHRENCL?F@PFRHJDnK`EhDxAfA`@n@V`Bn@pAj@\\Lh@dAhBtETHD@D@J@H@R@b@C|I_CL?D?@?D?B?B@DDLP","path":[{"lat":12.950870000000002,"lng":77.63435000000001},{"lat":12.95082,"lng":77.63438000000001},{"lat":12.950690000000002,"lng":77.63447000000001},{"lat":12.950650000000001,"lng":77.6345},{"lat":12.95062,"lng":77.63452000000001},{"lat":12.95057,"lng":77.63455},{"lat":12.94702,"lng":77.63600000000001},{"lat":12.94692,"lng":77.63603},{"lat":12.946840000000002,"lng":77.63605000000001},{"lat":12.94677,"lng":77.63605000000001},{"lat":12.94673,"lng":77.63604000000001},{"lat":12.94664,"lng":77.63600000000001},{"lat":12.94654,"lng":77.63595000000001},{"lat":12.946480000000001,"lng":77.63592000000001},{"lat":12.94448,"lng":77.63495},{"lat":12.94363,"lng":77.6345},{"lat":12.943270000000002,"lng":77.63433},{"lat":12.94303,"lng":77.63421000000001},{"lat":12.942540000000001,"lng":77.63397},{"lat":12.94213,"lng":77.63375},{"lat":12.941980000000001,"lng":77.63368000000001},{"lat":12.941770000000002,"lng":77.63333},{"lat":12.94124,"lng":77.63226},{"lat":12.941130000000001,"lng":77.63221},{"lat":12.9411,"lng":77.63220000000001},{"lat":12.941070000000002,"lng":77.63219000000001},{"lat":12.94101,"lng":77.63218},{"lat":12.94096,"lng":77.63217},{"lat":12.94086,"lng":77.63216000000001},{"lat":12.94068,"lng":77.63218},{"lat":12.938930000000001,"lng":77.63282000000001},{"lat":12.938860000000002,"lng":77.63282000000001},{"lat":12.938830000000001,"lng":77.63282000000001},{"lat":12.938820000000002,"lng":77.63282000000001},{"lat":12.938790000000001,"lng":77.63282000000001},{"lat":12.938770000000002,"lng":77.63282000000001},{"lat":12.93875,"lng":77.63281},{"lat":12.938720000000002,"lng":77.63278000000001},{"lat":12.93865,"lng":77.63269000000001}],"lat_lngs":[{"lat":12.950870000000002,"lng":77.63435000000001},{"lat":12.95082,"lng":77.63438000000001},{"lat":12.950690000000002,"lng":77.63447000000001},{"lat":12.950650000000001,"lng":77.6345},{"lat":12.95062,"lng":77.63452000000001},{"lat":12.95057,"lng":77.63455},{"lat":12.94702,"lng":77.63600000000001},{"lat":12.94692,"lng":77.63603},{"lat":12.946840000000002,"lng":77.63605000000001},{"lat":12.94677,"lng":77.63605000000001},{"lat":12.94673,"lng":77.63604000000001},{"lat":12.94664,"lng":77.63600000000001},{"lat":12.94654,"lng":77.63595000000001},{"lat":12.946480000000001,"lng":77.63592000000001},{"lat":12.94448,"lng":77.63495},{"lat":12.94363,"lng":77.6345},{"lat":12.943270000000002,"lng":77.63433},{"lat":12.94303,"lng":77.63421000000001},{"lat":12.942540000000001,"lng":77.63397},{"lat":12.94213,"lng":77.63375},{"lat":12.941980000000001,"lng":77.63368000000001},{"lat":12.941770000000002,"lng":77.63333},{"lat":12.94124,"lng":77.63226},{"lat":12.941130000000001,"lng":77.63221},{"lat":12.9411,"lng":77.63220000000001},{"lat":12.941070000000002,"lng":77.63219000000001},{"lat":12.94101,"lng":77.63218},{"lat":12.94096,"lng":77.63217},{"lat":12.94086,"lng":77.63216000000001},{"lat":12.94068,"lng":77.63218},{"lat":12.938930000000001,"lng":77.63282000000001},{"lat":12.938860000000002,"lng":77.63282000000001},{"lat":12.938830000000001,"lng":77.63282000000001},{"lat":12.938820000000002,"lng":77.63282000000001},{"lat":12.938790000000001,"lng":77.63282000000001},{"lat":12.938770000000002,"lng":77.63282000000001},{"lat":12.93875,"lng":77.63281},{"lat":12.938720000000002,"lng":77.63278000000001},{"lat":12.93865,"lng":77.63269000000001}],"instructions":"Continue straight","start_point":{"lat":12.9508667,"lng":77.63434559999996},"end_point":{"lat":12.9386516,"lng":77.63269450000007}},{"distance":{"text":"11 m","value":11},"duration":{"text":"1 min","value":15},"end_location":{"lat":12.9385537,"lng":77.63272669999992},"maneuver":"turn-left","polyline":{"points":"qa~mAisyxMRG"},"start_location":{"lat":12.9386516,"lng":77.63269450000007},"travel_mode":"DRIVING","encoded_lat_lngs":"qa~mAisyxMRG","path":[{"lat":12.93865,"lng":77.63269000000001},{"lat":12.938550000000001,"lng":77.63273000000001}],"lat_lngs":[{"lat":12.93865,"lng":77.63269000000001},{"lat":12.938550000000001,"lng":77.63273000000001}],"instructions":"Turn <b>left</b> onto <b>Ejipura Main Rd</b>","start_point":{"lat":12.9386516,"lng":77.63269450000007},"end_point":{"lat":12.9385537,"lng":77.63272669999992}},{"distance":{"text":"1.2 km","value":1226},"duration":{"text":"2 mins","value":128},"end_location":{"lat":12.9460253,"lng":77.6400377},"maneuver":"turn-left","polyline":{"points":"}`~mAqsyxM@cB?k@?k@Ck@?IAQAOCQCOG]ESGWEQGOCKIWIQGOKSKQKSS[MMc@i@MM[YOKWOw@g@[QoBgAyDqBwDqBcG_DoAq@oAo@}C_BSKYOWQKE"},"start_location":{"lat":12.9385537,"lng":77.63272669999992},"travel_mode":"DRIVING","encoded_lat_lngs":"}`~mAqsyxM@cB?k@?k@Ck@?IAQAOCQCOG]ESGWEQGOCKIWIQGOKSKQKSS[MMc@i@MM[YOKWOw@g@[QoBgAyDqBwDqBcG_DoAq@oAo@}C_BSKYOWQKE","path":[{"lat":12.938550000000001,"lng":77.63273000000001},{"lat":12.938540000000001,"lng":77.63323000000001},{"lat":12.938540000000001,"lng":77.63345000000001},{"lat":12.938540000000001,"lng":77.63367000000001},{"lat":12.93856,"lng":77.63389000000001},{"lat":12.93856,"lng":77.63394000000001},{"lat":12.93857,"lng":77.63403000000001},{"lat":12.938580000000002,"lng":77.63411},{"lat":12.938600000000001,"lng":77.6342},{"lat":12.93862,"lng":77.63428},{"lat":12.93866,"lng":77.63443000000001},{"lat":12.938690000000001,"lng":77.63453000000001},{"lat":12.938730000000001,"lng":77.63465000000001},{"lat":12.93876,"lng":77.63474000000001},{"lat":12.9388,"lng":77.63482},{"lat":12.938820000000002,"lng":77.63488000000001},{"lat":12.938870000000001,"lng":77.635},{"lat":12.938920000000001,"lng":77.63509},{"lat":12.938960000000002,"lng":77.63517},{"lat":12.939020000000001,"lng":77.63527},{"lat":12.93908,"lng":77.63536},{"lat":12.939140000000002,"lng":77.63546000000001},{"lat":12.939240000000002,"lng":77.63560000000001},{"lat":12.93931,"lng":77.63567},{"lat":12.939490000000001,"lng":77.63588},{"lat":12.93956,"lng":77.63595000000001},{"lat":12.9397,"lng":77.63608},{"lat":12.93978,"lng":77.63614000000001},{"lat":12.939900000000002,"lng":77.63622000000001},{"lat":12.940180000000002,"lng":77.63642},{"lat":12.940320000000002,"lng":77.63651},{"lat":12.940880000000002,"lng":77.63687},{"lat":12.94181,"lng":77.63744000000001},{"lat":12.942730000000001,"lng":77.63801000000001},{"lat":12.944030000000001,"lng":77.63881},{"lat":12.94443,"lng":77.63906},{"lat":12.944830000000001,"lng":77.6393},{"lat":12.945620000000002,"lng":77.63978},{"lat":12.945720000000001,"lng":77.63984},{"lat":12.945850000000002,"lng":77.63992},{"lat":12.94597,"lng":77.64001},{"lat":12.94603,"lng":77.64004000000001}],"lat_lngs":[{"lat":12.938550000000001,"lng":77.63273000000001},{"lat":12.938540000000001,"lng":77.63323000000001},{"lat":12.938540000000001,"lng":77.63345000000001},{"lat":12.938540000000001,"lng":77.63367000000001},{"lat":12.93856,"lng":77.63389000000001},{"lat":12.93856,"lng":77.63394000000001},{"lat":12.93857,"lng":77.63403000000001},{"lat":12.938580000000002,"lng":77.63411},{"lat":12.938600000000001,"lng":77.6342},{"lat":12.93862,"lng":77.63428},{"lat":12.93866,"lng":77.63443000000001},{"lat":12.938690000000001,"lng":77.63453000000001},{"lat":12.938730000000001,"lng":77.63465000000001},{"lat":12.93876,"lng":77.63474000000001},{"lat":12.9388,"lng":77.63482},{"lat":12.938820000000002,"lng":77.63488000000001},{"lat":12.938870000000001,"lng":77.635},{"lat":12.938920000000001,"lng":77.63509},{"lat":12.938960000000002,"lng":77.63517},{"lat":12.939020000000001,"lng":77.63527},{"lat":12.93908,"lng":77.63536},{"lat":12.939140000000002,"lng":77.63546000000001},{"lat":12.939240000000002,"lng":77.63560000000001},{"lat":12.93931,"lng":77.63567},{"lat":12.939490000000001,"lng":77.63588},{"lat":12.93956,"lng":77.63595000000001},{"lat":12.9397,"lng":77.63608},{"lat":12.93978,"lng":77.63614000000001},{"lat":12.939900000000002,"lng":77.63622000000001},{"lat":12.940180000000002,"lng":77.63642},{"lat":12.940320000000002,"lng":77.63651},{"lat":12.940880000000002,"lng":77.63687},{"lat":12.94181,"lng":77.63744000000001},{"lat":12.942730000000001,"lng":77.63801000000001},{"lat":12.944030000000001,"lng":77.63881},{"lat":12.94443,"lng":77.63906},{"lat":12.944830000000001,"lng":77.6393},{"lat":12.945620000000002,"lng":77.63978},{"lat":12.945720000000001,"lng":77.63984},{"lat":12.945850000000002,"lng":77.63992},{"lat":12.94597,"lng":77.64001},{"lat":12.94603,"lng":77.64004000000001}],"instructions":"Turn <b>left</b> onto <b>100 Feet Rd</b>/<b>Intermediate Ring Rd</b>/<b>Koramangala Indiranagar Ring Rd</b>","start_point":{"lat":12.9385537,"lng":77.63272669999992},"end_point":{"lat":12.9460253,"lng":77.6400377}},{"distance":{"text":"3.7 km","value":3672},"duration":{"text":"13 mins","value":774},"end_location":{"lat":12.9246164,"lng":77.61827420000009},"maneuver":"uturn-right","polyline":{"points":"uo_nAga{xMLSJFVNVNLFlB~@vDrB`HrD`MnGhBdAPJDBJHFDFDFDJJHHDBDDDFNPZ^HJDFDFDFDHDFBFDHDFBFBFDHL\\Pf@Lj@Hb@BH@J@HBJ@L@F?H@D?D@F?D?L?J?J?F?L?T?j@EhBAxB?L?J@J@z@@|A@H?R@l@?D?d@C|AAjA@j@@VBTDVF\\HZJ\\V`AJVFPBDPZJTHPJR?@R`@LVDFBDx@hAHL~@nAfDnE~@lAp@z@r@z@LPHJDDDDDDDDFFFDHFJHHDLHFDFBFDfBt@xBv@lCv@pF~AjFvA~C|@JDLD~@X|Ad@xAf@fBf@PFND~GpBt@VPJTPX^LRNXJX~@rCPr@\\fA"},"start_location":{"lat":12.9460253,"lng":77.6400377},"travel_mode":"DRIVING","encoded_lat_lngs":"uo_nAga{xMLSJFVNVNLFlB~@vDrB`HrD`MnGhBdAPJDBJHFDFDFDJJHHDBDDDFNPZ^HJDFDFDFDHDFBFDHDFBFBFDHL\\Pf@Lj@Hb@BH@J@HBJ@L@F?H@D?D@F?D?L?J?J?F?L?T?j@EhBAxB?L?J@J@z@@|A@H?R@l@?D?d@C|AAjA@j@@VBTDVF\\HZJ\\V`AJVFPBDPZJTHPJR?@R`@LVDFBDx@hAHL~@nAfDnE~@lAp@z@r@z@LPHJDDDDDDDDFFFDHFJHHDLHFDFBFDfBt@xBv@lCv@pF~AjFvA~C|@JDLD~@X|Ad@xAf@fBf@PFND~GpBt@VPJTPX^LRNXJX~@rCPr@\\fA","path":[{"lat":12.94603,"lng":77.64004000000001},{"lat":12.945960000000001,"lng":77.64014},{"lat":12.945900000000002,"lng":77.6401},{"lat":12.945780000000001,"lng":77.64002},{"lat":12.945660000000002,"lng":77.63994000000001},{"lat":12.945590000000001,"lng":77.63990000000001},{"lat":12.94504,"lng":77.63958000000001},{"lat":12.944120000000002,"lng":77.63900000000001},{"lat":12.942670000000001,"lng":77.63810000000001},{"lat":12.940420000000001,"lng":77.63674},{"lat":12.939890000000002,"lng":77.63639},{"lat":12.939800000000002,"lng":77.63633},{"lat":12.939770000000001,"lng":77.63631000000001},{"lat":12.939710000000002,"lng":77.63626000000001},{"lat":12.939670000000001,"lng":77.63623000000001},{"lat":12.939630000000001,"lng":77.6362},{"lat":12.93959,"lng":77.63617},{"lat":12.939530000000001,"lng":77.63611},{"lat":12.939480000000001,"lng":77.63606},{"lat":12.93945,"lng":77.63604000000001},{"lat":12.939420000000002,"lng":77.63601000000001},{"lat":12.939390000000001,"lng":77.63597},{"lat":12.93931,"lng":77.63588},{"lat":12.93917,"lng":77.63572},{"lat":12.93912,"lng":77.63566},{"lat":12.93909,"lng":77.63562},{"lat":12.939060000000001,"lng":77.63558},{"lat":12.93903,"lng":77.63554},{"lat":12.939000000000002,"lng":77.63549},{"lat":12.938970000000001,"lng":77.63545},{"lat":12.93895,"lng":77.63541000000001},{"lat":12.938920000000001,"lng":77.63536},{"lat":12.93889,"lng":77.63532000000001},{"lat":12.938870000000001,"lng":77.63528000000001},{"lat":12.93885,"lng":77.63524000000001},{"lat":12.938820000000002,"lng":77.63519000000001},{"lat":12.93875,"lng":77.63504},{"lat":12.93866,"lng":77.63484000000001},{"lat":12.938590000000001,"lng":77.63462000000001},{"lat":12.938540000000001,"lng":77.63444000000001},{"lat":12.93852,"lng":77.63439000000001},{"lat":12.93851,"lng":77.63433},{"lat":12.938500000000001,"lng":77.63428},{"lat":12.93848,"lng":77.63422000000001},{"lat":12.93847,"lng":77.63415},{"lat":12.938460000000001,"lng":77.63411},{"lat":12.938460000000001,"lng":77.63406},{"lat":12.938450000000001,"lng":77.63403000000001},{"lat":12.938450000000001,"lng":77.634},{"lat":12.938440000000002,"lng":77.63396},{"lat":12.938440000000002,"lng":77.63393},{"lat":12.938440000000002,"lng":77.63386000000001},{"lat":12.938440000000002,"lng":77.63380000000001},{"lat":12.938440000000002,"lng":77.63374},{"lat":12.938440000000002,"lng":77.6337},{"lat":12.938440000000002,"lng":77.63363000000001},{"lat":12.938440000000002,"lng":77.63352},{"lat":12.938440000000002,"lng":77.6333},{"lat":12.93847,"lng":77.63277000000001},{"lat":12.93848,"lng":77.63216000000001},{"lat":12.93848,"lng":77.63209},{"lat":12.93848,"lng":77.63203},{"lat":12.93847,"lng":77.63197000000001},{"lat":12.938460000000001,"lng":77.63167},{"lat":12.938450000000001,"lng":77.6312},{"lat":12.938440000000002,"lng":77.63115},{"lat":12.938440000000002,"lng":77.63105},{"lat":12.93843,"lng":77.63082},{"lat":12.93843,"lng":77.63079},{"lat":12.93843,"lng":77.6306},{"lat":12.938450000000001,"lng":77.63013000000001},{"lat":12.938460000000001,"lng":77.62975},{"lat":12.938450000000001,"lng":77.62953},{"lat":12.938440000000002,"lng":77.62941000000001},{"lat":12.93842,"lng":77.6293},{"lat":12.938390000000002,"lng":77.62918},{"lat":12.938350000000002,"lng":77.62903},{"lat":12.938300000000002,"lng":77.62889000000001},{"lat":12.93824,"lng":77.62874000000001},{"lat":12.938120000000001,"lng":77.62841},{"lat":12.938060000000002,"lng":77.62829},{"lat":12.938020000000002,"lng":77.6282},{"lat":12.938,"lng":77.62817000000001},{"lat":12.93791,"lng":77.62803000000001},{"lat":12.937850000000001,"lng":77.62792},{"lat":12.937800000000001,"lng":77.62783},{"lat":12.937740000000002,"lng":77.62773},{"lat":12.937740000000002,"lng":77.62772000000001},{"lat":12.937640000000002,"lng":77.62755},{"lat":12.937570000000001,"lng":77.62743},{"lat":12.93754,"lng":77.62739},{"lat":12.937520000000001,"lng":77.62736000000001},{"lat":12.937230000000001,"lng":77.62699},{"lat":12.937180000000001,"lng":77.62692000000001},{"lat":12.936860000000001,"lng":77.62652},{"lat":12.936020000000001,"lng":77.62548000000001},{"lat":12.9357,"lng":77.62509},{"lat":12.935450000000001,"lng":77.62479},{"lat":12.93519,"lng":77.62449000000001},{"lat":12.935120000000001,"lng":77.62440000000001},{"lat":12.935070000000001,"lng":77.62434},{"lat":12.93504,"lng":77.62431000000001},{"lat":12.935010000000002,"lng":77.62428000000001},{"lat":12.934980000000001,"lng":77.62425},{"lat":12.93495,"lng":77.62422000000001},{"lat":12.93491,"lng":77.62418000000001},{"lat":12.934870000000002,"lng":77.62415},{"lat":12.93482,"lng":77.62411},{"lat":12.93476,"lng":77.62406},{"lat":12.93471,"lng":77.62403},{"lat":12.934640000000002,"lng":77.62398},{"lat":12.934600000000001,"lng":77.62395000000001},{"lat":12.934560000000001,"lng":77.62393},{"lat":12.934520000000001,"lng":77.6239},{"lat":12.934000000000001,"lng":77.62363},{"lat":12.933390000000001,"lng":77.62335},{"lat":12.932680000000001,"lng":77.62307000000001},{"lat":12.931470000000001,"lng":77.62259},{"lat":12.930290000000001,"lng":77.62215},{"lat":12.929490000000001,"lng":77.62184},{"lat":12.929430000000002,"lng":77.62181000000001},{"lat":12.92936,"lng":77.62178},{"lat":12.92904,"lng":77.62165},{"lat":12.92857,"lng":77.62146000000001},{"lat":12.928120000000002,"lng":77.62126},{"lat":12.927600000000002,"lng":77.62106},{"lat":12.927510000000002,"lng":77.62102},{"lat":12.927430000000001,"lng":77.62099},{"lat":12.92599,"lng":77.62042000000001},{"lat":12.925720000000002,"lng":77.6203},{"lat":12.925630000000002,"lng":77.62024000000001},{"lat":12.92552,"lng":77.62015000000001},{"lat":12.925390000000002,"lng":77.61999},{"lat":12.925320000000001,"lng":77.61989000000001},{"lat":12.92524,"lng":77.61976},{"lat":12.925180000000001,"lng":77.61963},{"lat":12.92486,"lng":77.61889000000001},{"lat":12.92477,"lng":77.61863000000001},{"lat":12.92462,"lng":77.61827000000001}],"lat_lngs":[{"lat":12.94603,"lng":77.64004000000001},{"lat":12.945960000000001,"lng":77.64014},{"lat":12.945900000000002,"lng":77.6401},{"lat":12.945780000000001,"lng":77.64002},{"lat":12.945660000000002,"lng":77.63994000000001},{"lat":12.945590000000001,"lng":77.63990000000001},{"lat":12.94504,"lng":77.63958000000001},{"lat":12.944120000000002,"lng":77.63900000000001},{"lat":12.942670000000001,"lng":77.63810000000001},{"lat":12.940420000000001,"lng":77.63674},{"lat":12.939890000000002,"lng":77.63639},{"lat":12.939800000000002,"lng":77.63633},{"lat":12.939770000000001,"lng":77.63631000000001},{"lat":12.939710000000002,"lng":77.63626000000001},{"lat":12.939670000000001,"lng":77.63623000000001},{"lat":12.939630000000001,"lng":77.6362},{"lat":12.93959,"lng":77.63617},{"lat":12.939530000000001,"lng":77.63611},{"lat":12.939480000000001,"lng":77.63606},{"lat":12.93945,"lng":77.63604000000001},{"lat":12.939420000000002,"lng":77.63601000000001},{"lat":12.939390000000001,"lng":77.63597},{"lat":12.93931,"lng":77.63588},{"lat":12.93917,"lng":77.63572},{"lat":12.93912,"lng":77.63566},{"lat":12.93909,"lng":77.63562},{"lat":12.939060000000001,"lng":77.63558},{"lat":12.93903,"lng":77.63554},{"lat":12.939000000000002,"lng":77.63549},{"lat":12.938970000000001,"lng":77.63545},{"lat":12.93895,"lng":77.63541000000001},{"lat":12.938920000000001,"lng":77.63536},{"lat":12.93889,"lng":77.63532000000001},{"lat":12.938870000000001,"lng":77.63528000000001},{"lat":12.93885,"lng":77.63524000000001},{"lat":12.938820000000002,"lng":77.63519000000001},{"lat":12.93875,"lng":77.63504},{"lat":12.93866,"lng":77.63484000000001},{"lat":12.938590000000001,"lng":77.63462000000001},{"lat":12.938540000000001,"lng":77.63444000000001},{"lat":12.93852,"lng":77.63439000000001},{"lat":12.93851,"lng":77.63433},{"lat":12.938500000000001,"lng":77.63428},{"lat":12.93848,"lng":77.63422000000001},{"lat":12.93847,"lng":77.63415},{"lat":12.938460000000001,"lng":77.63411},{"lat":12.938460000000001,"lng":77.63406},{"lat":12.938450000000001,"lng":77.63403000000001},{"lat":12.938450000000001,"lng":77.634},{"lat":12.938440000000002,"lng":77.63396},{"lat":12.938440000000002,"lng":77.63393},{"lat":12.938440000000002,"lng":77.63386000000001},{"lat":12.938440000000002,"lng":77.63380000000001},{"lat":12.938440000000002,"lng":77.63374},{"lat":12.938440000000002,"lng":77.6337},{"lat":12.938440000000002,"lng":77.63363000000001},{"lat":12.938440000000002,"lng":77.63352},{"lat":12.938440000000002,"lng":77.6333},{"lat":12.93847,"lng":77.63277000000001},{"lat":12.93848,"lng":77.63216000000001},{"lat":12.93848,"lng":77.63209},{"lat":12.93848,"lng":77.63203},{"lat":12.93847,"lng":77.63197000000001},{"lat":12.938460000000001,"lng":77.63167},{"lat":12.938450000000001,"lng":77.6312},{"lat":12.938440000000002,"lng":77.63115},{"lat":12.938440000000002,"lng":77.63105},{"lat":12.93843,"lng":77.63082},{"lat":12.93843,"lng":77.63079},{"lat":12.93843,"lng":77.6306},{"lat":12.938450000000001,"lng":77.63013000000001},{"lat":12.938460000000001,"lng":77.62975},{"lat":12.938450000000001,"lng":77.62953},{"lat":12.938440000000002,"lng":77.62941000000001},{"lat":12.93842,"lng":77.6293},{"lat":12.938390000000002,"lng":77.62918},{"lat":12.938350000000002,"lng":77.62903},{"lat":12.938300000000002,"lng":77.62889000000001},{"lat":12.93824,"lng":77.62874000000001},{"lat":12.938120000000001,"lng":77.62841},{"lat":12.938060000000002,"lng":77.62829},{"lat":12.938020000000002,"lng":77.6282},{"lat":12.938,"lng":77.62817000000001},{"lat":12.93791,"lng":77.62803000000001},{"lat":12.937850000000001,"lng":77.62792},{"lat":12.937800000000001,"lng":77.62783},{"lat":12.937740000000002,"lng":77.62773},{"lat":12.937740000000002,"lng":77.62772000000001},{"lat":12.937640000000002,"lng":77.62755},{"lat":12.937570000000001,"lng":77.62743},{"lat":12.93754,"lng":77.62739},{"lat":12.937520000000001,"lng":77.62736000000001},{"lat":12.937230000000001,"lng":77.62699},{"lat":12.937180000000001,"lng":77.62692000000001},{"lat":12.936860000000001,"lng":77.62652},{"lat":12.936020000000001,"lng":77.62548000000001},{"lat":12.9357,"lng":77.62509},{"lat":12.935450000000001,"lng":77.62479},{"lat":12.93519,"lng":77.62449000000001},{"lat":12.935120000000001,"lng":77.62440000000001},{"lat":12.935070000000001,"lng":77.62434},{"lat":12.93504,"lng":77.62431000000001},{"lat":12.935010000000002,"lng":77.62428000000001},{"lat":12.934980000000001,"lng":77.62425},{"lat":12.93495,"lng":77.62422000000001},{"lat":12.93491,"lng":77.62418000000001},{"lat":12.934870000000002,"lng":77.62415},{"lat":12.93482,"lng":77.62411},{"lat":12.93476,"lng":77.62406},{"lat":12.93471,"lng":77.62403},{"lat":12.934640000000002,"lng":77.62398},{"lat":12.934600000000001,"lng":77.62395000000001},{"lat":12.934560000000001,"lng":77.62393},{"lat":12.934520000000001,"lng":77.6239},{"lat":12.934000000000001,"lng":77.62363},{"lat":12.933390000000001,"lng":77.62335},{"lat":12.932680000000001,"lng":77.62307000000001},{"lat":12.931470000000001,"lng":77.62259},{"lat":12.930290000000001,"lng":77.62215},{"lat":12.929490000000001,"lng":77.62184},{"lat":12.929430000000002,"lng":77.62181000000001},{"lat":12.92936,"lng":77.62178},{"lat":12.92904,"lng":77.62165},{"lat":12.92857,"lng":77.62146000000001},{"lat":12.928120000000002,"lng":77.62126},{"lat":12.927600000000002,"lng":77.62106},{"lat":12.927510000000002,"lng":77.62102},{"lat":12.927430000000001,"lng":77.62099},{"lat":12.92599,"lng":77.62042000000001},{"lat":12.925720000000002,"lng":77.6203},{"lat":12.925630000000002,"lng":77.62024000000001},{"lat":12.92552,"lng":77.62015000000001},{"lat":12.925390000000002,"lng":77.61999},{"lat":12.925320000000001,"lng":77.61989000000001},{"lat":12.92524,"lng":77.61976},{"lat":12.925180000000001,"lng":77.61963},{"lat":12.92486,"lng":77.61889000000001},{"lat":12.92477,"lng":77.61863000000001},{"lat":12.92462,"lng":77.61827000000001}],"instructions":"Make a <b>U-turn</b><div style=\"font-size:0.9em\">Continue to follow 100 Feet Rd</div><div style=\"font-size:0.9em\">Pass by New Neerala Punjabi Food (on the left in 1.3&nbsp;km)</div>","start_point":{"lat":12.9460253,"lng":77.6400377},"end_point":{"lat":12.9246164,"lng":77.61827420000009}},{"distance":{"text":"0.3 km","value":285},"duration":{"text":"1 min","value":73},"end_location":{"lat":12.9223812,"lng":77.61953870000002},"maneuver":"turn-left","polyline":{"points":"{i{mAeyvxMfAg@r@_@RIFCF?LAf@WdAm@zAw@fAg@"},"start_location":{"lat":12.9246164,"lng":77.61827420000009},"travel_mode":"DRIVING","encoded_lat_lngs":"{i{mAeyvxMfAg@r@_@RIFCF?LAf@WdAm@zAw@fAg@","path":[{"lat":12.92462,"lng":77.61827000000001},{"lat":12.92426,"lng":77.61847},{"lat":12.924000000000001,"lng":77.61863000000001},{"lat":12.923900000000001,"lng":77.61868000000001},{"lat":12.923860000000001,"lng":77.6187},{"lat":12.923820000000001,"lng":77.6187},{"lat":12.923750000000002,"lng":77.61871000000001},{"lat":12.92355,"lng":77.61883},{"lat":12.923200000000001,"lng":77.61906},{"lat":12.922740000000001,"lng":77.61934000000001},{"lat":12.92238,"lng":77.61954}],"lat_lngs":[{"lat":12.92462,"lng":77.61827000000001},{"lat":12.92426,"lng":77.61847},{"lat":12.924000000000001,"lng":77.61863000000001},{"lat":12.923900000000001,"lng":77.61868000000001},{"lat":12.923860000000001,"lng":77.6187},{"lat":12.923820000000001,"lng":77.6187},{"lat":12.923750000000002,"lng":77.61871000000001},{"lat":12.92355,"lng":77.61883},{"lat":12.923200000000001,"lng":77.61906},{"lat":12.922740000000001,"lng":77.61934000000001},{"lat":12.92238,"lng":77.61954}],"instructions":"Turn <b>left</b> onto <b>Hosur Rd</b><div style=\"font-size:0.9em\">Pass by State Bank of India ATM (on the left)</div>","start_point":{"lat":12.9246164,"lng":77.61827420000009},"end_point":{"lat":12.9223812,"lng":77.61953870000002}},{"distance":{"text":"1.6 km","value":1620},"duration":{"text":"4 mins","value":210},"end_location":{"lat":12.9098889,"lng":77.62721060000001},"maneuver":"straight","polyline":{"points":"{{zmAcawxMdAo@v@c@RMrAm@TKbCoAdB{@VMRKj@_@l@a@n@e@f@_@`@W`@Wn@_@JEpAu@jAm@dCmAdAg@l@WrHiD\\Sv@a@~GoDlPsILG"},"start_location":{"lat":12.9223812,"lng":77.61953870000002},"travel_mode":"DRIVING","encoded_lat_lngs":"{{zmAcawxMdAo@v@c@RMrAm@TKbCoAdB{@VMRKj@_@l@a@n@e@f@_@`@W`@Wn@_@JEpAu@jAm@dCmAdAg@l@WrHiD\\Sv@a@~GoDlPsILG","path":[{"lat":12.92238,"lng":77.61954},{"lat":12.922030000000001,"lng":77.61978},{"lat":12.921750000000001,"lng":77.61996},{"lat":12.921650000000001,"lng":77.62003},{"lat":12.921230000000001,"lng":77.62026},{"lat":12.921120000000002,"lng":77.62032},{"lat":12.92046,"lng":77.62072},{"lat":12.919950000000002,"lng":77.62102},{"lat":12.919830000000001,"lng":77.62109000000001},{"lat":12.919730000000001,"lng":77.62115},{"lat":12.91951,"lng":77.62131000000001},{"lat":12.91928,"lng":77.62148},{"lat":12.91904,"lng":77.62167000000001},{"lat":12.918840000000001,"lng":77.62183},{"lat":12.91867,"lng":77.62195000000001},{"lat":12.918500000000002,"lng":77.62207000000001},{"lat":12.918260000000002,"lng":77.62223},{"lat":12.9182,"lng":77.62226000000001},{"lat":12.917790000000002,"lng":77.62253000000001},{"lat":12.91741,"lng":77.62276},{"lat":12.91674,"lng":77.62315000000001},{"lat":12.916390000000002,"lng":77.62335},{"lat":12.916160000000001,"lng":77.62347000000001},{"lat":12.914620000000001,"lng":77.62432000000001},{"lat":12.914470000000001,"lng":77.62442},{"lat":12.914190000000001,"lng":77.62459000000001},{"lat":12.91275,"lng":77.62547},{"lat":12.909960000000002,"lng":77.62717},{"lat":12.90989,"lng":77.62721}],"lat_lngs":[{"lat":12.92238,"lng":77.61954},{"lat":12.922030000000001,"lng":77.61978},{"lat":12.921750000000001,"lng":77.61996},{"lat":12.921650000000001,"lng":77.62003},{"lat":12.921230000000001,"lng":77.62026},{"lat":12.921120000000002,"lng":77.62032},{"lat":12.92046,"lng":77.62072},{"lat":12.919950000000002,"lng":77.62102},{"lat":12.919830000000001,"lng":77.62109000000001},{"lat":12.919730000000001,"lng":77.62115},{"lat":12.91951,"lng":77.62131000000001},{"lat":12.91928,"lng":77.62148},{"lat":12.91904,"lng":77.62167000000001},{"lat":12.918840000000001,"lng":77.62183},{"lat":12.91867,"lng":77.62195000000001},{"lat":12.918500000000002,"lng":77.62207000000001},{"lat":12.918260000000002,"lng":77.62223},{"lat":12.9182,"lng":77.62226000000001},{"lat":12.917790000000002,"lng":77.62253000000001},{"lat":12.91741,"lng":77.62276},{"lat":12.91674,"lng":77.62315000000001},{"lat":12.916390000000002,"lng":77.62335},{"lat":12.916160000000001,"lng":77.62347000000001},{"lat":12.914620000000001,"lng":77.62432000000001},{"lat":12.914470000000001,"lng":77.62442},{"lat":12.914190000000001,"lng":77.62459000000001},{"lat":12.91275,"lng":77.62547},{"lat":12.909960000000002,"lng":77.62717},{"lat":12.90989,"lng":77.62721}],"instructions":"Continue straight to stay on <b>Hosur Rd</b><div style=\"font-size:0.9em\">Pass by More Super Market (on the left)</div>","start_point":{"lat":12.9223812,"lng":77.61953870000002},"end_point":{"lat":12.9098889,"lng":77.62721060000001}},{"distance":{"text":"0.5 km","value":470},"duration":{"text":"2 mins","value":109},"end_location":{"lat":12.9062946,"lng":77.62948699999993},"maneuver":"turn-slight-left","polyline":{"points":"ymxmAaqxxMr@m@j@[|GoDxC_BPIhAi@RMfAk@"},"start_location":{"lat":12.9098889,"lng":77.62721060000001},"travel_mode":"DRIVING","encoded_lat_lngs":"ymxmAaqxxMr@m@j@[|GoDxC_BPIhAi@RMfAk@","path":[{"lat":12.90989,"lng":77.62721},{"lat":12.909630000000002,"lng":77.62744},{"lat":12.909410000000001,"lng":77.62758000000001},{"lat":12.90798,"lng":77.62846},{"lat":12.907210000000001,"lng":77.62894},{"lat":12.90712,"lng":77.62899},{"lat":12.90675,"lng":77.62920000000001},{"lat":12.90665,"lng":77.62927},{"lat":12.90629,"lng":77.62949}],"lat_lngs":[{"lat":12.90989,"lng":77.62721},{"lat":12.909630000000002,"lng":77.62744},{"lat":12.909410000000001,"lng":77.62758000000001},{"lat":12.90798,"lng":77.62846},{"lat":12.907210000000001,"lng":77.62894},{"lat":12.90712,"lng":77.62899},{"lat":12.90675,"lng":77.62920000000001},{"lat":12.90665,"lng":77.62927},{"lat":12.90629,"lng":77.62949}],"instructions":"Slight <b>left</b> onto <b>NH44</b>","start_point":{"lat":12.9098889,"lng":77.62721060000001},"end_point":{"lat":12.9062946,"lng":77.62948699999993}},{"distance":{"text":"8 m","value":8},"duration":{"text":"1 min","value":7},"end_location":{"lat":12.9063196,"lng":77.62955390000002},"maneuver":"turn-left","polyline":{"points":"iwwmAi_yxMEK"},"start_location":{"lat":12.9062946,"lng":77.62948699999993},"travel_mode":"DRIVING","encoded_lat_lngs":"iwwmAi_yxMEK","path":[{"lat":12.90629,"lng":77.62949},{"lat":12.906320000000001,"lng":77.62955000000001}],"lat_lngs":[{"lat":12.90629,"lng":77.62949},{"lat":12.906320000000001,"lng":77.62955000000001}],"instructions":"Turn <b>left</b> onto <b>27th Cross Rd</b>/<b>Hospalya Main Rd</b>/<b>Mangammanapalya Main Rd</b>/<b>Mangamma Palaya Rd</b>","start_point":{"lat":12.9062946,"lng":77.62948699999993},"end_point":{"lat":12.9063196,"lng":77.62955390000002}},{"distance":{"text":"1.9 km","value":1873},"duration":{"text":"5 mins","value":272},"end_location":{"lat":12.8918794,"lng":77.63842320000003},"maneuver":"turn-right","polyline":{"points":"owwmAu_yxMt@_@l@[HEDEt@k@JEHEHEd@OPGJEt@a@rBgA|Ay@`IeE`@SRK~C_BpFwCtAq@r@c@dCmAlCuAd@YzC}ARMd@_@LIJGHGLEv@[LENIrE_C`Ai@rGgD~A}@x@c@`Ag@"},"start_location":{"lat":12.9063196,"lng":77.62955390000002},"travel_mode":"DRIVING","encoded_lat_lngs":"owwmAu_yxMt@_@l@[HEDEt@k@JEHEHEd@OPGJEt@a@rBgA|Ay@`IeE`@SRK~C_BpFwCtAq@r@c@dCmAlCuAd@YzC}ARMd@_@LIJGHGLEv@[LENIrE_C`Ai@rGgD~A}@x@c@`Ag@","path":[{"lat":12.906320000000001,"lng":77.62955000000001},{"lat":12.90605,"lng":77.62971},{"lat":12.90582,"lng":77.62985},{"lat":12.90577,"lng":77.62988},{"lat":12.905740000000002,"lng":77.62991000000001},{"lat":12.905470000000001,"lng":77.63013000000001},{"lat":12.905410000000002,"lng":77.63016},{"lat":12.905360000000002,"lng":77.63019000000001},{"lat":12.905310000000002,"lng":77.63022000000001},{"lat":12.905120000000002,"lng":77.6303},{"lat":12.905030000000002,"lng":77.63034},{"lat":12.90497,"lng":77.63037000000001},{"lat":12.904700000000002,"lng":77.63054000000001},{"lat":12.90412,"lng":77.63090000000001},{"lat":12.90365,"lng":77.63119},{"lat":12.902040000000001,"lng":77.63218},{"lat":12.90187,"lng":77.63228000000001},{"lat":12.90177,"lng":77.63234000000001},{"lat":12.900970000000001,"lng":77.63282000000001},{"lat":12.89976,"lng":77.63358000000001},{"lat":12.89933,"lng":77.63383},{"lat":12.899070000000002,"lng":77.63401},{"lat":12.8984,"lng":77.6344},{"lat":12.89769,"lng":77.63483000000001},{"lat":12.8975,"lng":77.63496},{"lat":12.89672,"lng":77.63543},{"lat":12.89662,"lng":77.63550000000001},{"lat":12.89643,"lng":77.63566},{"lat":12.896360000000001,"lng":77.63571},{"lat":12.896300000000002,"lng":77.63575},{"lat":12.89625,"lng":77.63579},{"lat":12.896180000000001,"lng":77.63582000000001},{"lat":12.895900000000001,"lng":77.63596000000001},{"lat":12.895830000000002,"lng":77.63599},{"lat":12.895750000000001,"lng":77.63604000000001},{"lat":12.89469,"lng":77.63668000000001},{"lat":12.89436,"lng":77.63689000000001},{"lat":12.892980000000001,"lng":77.63773},{"lat":12.892500000000002,"lng":77.63804},{"lat":12.89221,"lng":77.63822},{"lat":12.89188,"lng":77.63842000000001}],"lat_lngs":[{"lat":12.906320000000001,"lng":77.62955000000001},{"lat":12.90605,"lng":77.62971},{"lat":12.90582,"lng":77.62985},{"lat":12.90577,"lng":77.62988},{"lat":12.905740000000002,"lng":77.62991000000001},{"lat":12.905470000000001,"lng":77.63013000000001},{"lat":12.905410000000002,"lng":77.63016},{"lat":12.905360000000002,"lng":77.63019000000001},{"lat":12.905310000000002,"lng":77.63022000000001},{"lat":12.905120000000002,"lng":77.6303},{"lat":12.905030000000002,"lng":77.63034},{"lat":12.90497,"lng":77.63037000000001},{"lat":12.904700000000002,"lng":77.63054000000001},{"lat":12.90412,"lng":77.63090000000001},{"lat":12.90365,"lng":77.63119},{"lat":12.902040000000001,"lng":77.63218},{"lat":12.90187,"lng":77.63228000000001},{"lat":12.90177,"lng":77.63234000000001},{"lat":12.900970000000001,"lng":77.63282000000001},{"lat":12.89976,"lng":77.63358000000001},{"lat":12.89933,"lng":77.63383},{"lat":12.899070000000002,"lng":77.63401},{"lat":12.8984,"lng":77.6344},{"lat":12.89769,"lng":77.63483000000001},{"lat":12.8975,"lng":77.63496},{"lat":12.89672,"lng":77.63543},{"lat":12.89662,"lng":77.63550000000001},{"lat":12.89643,"lng":77.63566},{"lat":12.896360000000001,"lng":77.63571},{"lat":12.896300000000002,"lng":77.63575},{"lat":12.89625,"lng":77.63579},{"lat":12.896180000000001,"lng":77.63582000000001},{"lat":12.895900000000001,"lng":77.63596000000001},{"lat":12.895830000000002,"lng":77.63599},{"lat":12.895750000000001,"lng":77.63604000000001},{"lat":12.89469,"lng":77.63668000000001},{"lat":12.89436,"lng":77.63689000000001},{"lat":12.892980000000001,"lng":77.63773},{"lat":12.892500000000002,"lng":77.63804},{"lat":12.89221,"lng":77.63822},{"lat":12.89188,"lng":77.63842000000001}],"instructions":"Turn <b>right</b> onto <b>Service Rd</b><div style=\"font-size:0.9em\">Pass by Tharavadu Restaurant (on the left)</div>","start_point":{"lat":12.9063196,"lng":77.62955390000002},"end_point":{"lat":12.8918794,"lng":77.63842320000003}},{"distance":{"text":"0.4 km","value":434},"duration":{"text":"2 mins","value":109},"end_location":{"lat":12.8928959,"lng":77.64228379999997},"maneuver":"turn-left","polyline":{"points":"g}tmAcwzxMcCgPKi@Qk@M[K_@Ia@Eg@"},"start_location":{"lat":12.8918794,"lng":77.63842320000003},"travel_mode":"DRIVING","encoded_lat_lngs":"g}tmAcwzxMcCgPKi@Qk@M[K_@Ia@Eg@","path":[{"lat":12.89188,"lng":77.63842000000001},{"lat":12.89254,"lng":77.64118},{"lat":12.892600000000002,"lng":77.64139},{"lat":12.892690000000002,"lng":77.64161},{"lat":12.89276,"lng":77.64175},{"lat":12.89282,"lng":77.64191000000001},{"lat":12.89287,"lng":77.64208},{"lat":12.892900000000001,"lng":77.64228}],"lat_lngs":[{"lat":12.89188,"lng":77.63842000000001},{"lat":12.89254,"lng":77.64118},{"lat":12.892600000000002,"lng":77.64139},{"lat":12.892690000000002,"lng":77.64161},{"lat":12.89276,"lng":77.64175},{"lat":12.89282,"lng":77.64191000000001},{"lat":12.89287,"lng":77.64208},{"lat":12.892900000000001,"lng":77.64228}],"instructions":"Turn <b>left</b><div style=\"font-size:0.9em\">Destination will be on the right</div>","start_point":{"lat":12.8918794,"lng":77.63842320000003},"end_point":{"lat":12.8928959,"lng":77.64228379999997}}],"traffic_speed_entry":[],"via_waypoint":[],"via_waypoints":[]}],"overview_polyline":"idbnA_cyxMfEyAbBs@ZE@C?GHIN?@?~FyBv@WzAo@zJ_EpJ}D`@K`E_Bb@WLInUgHb@IT@`MxEpFzBpCfAnBx@h@dAhBtEZJPB\\Bb@C|I_CR?F?F@RVRG@cB?wAGwAUsAYeAg@mAy@oAq@w@k@e@oAw@kCyAeUuL{GkDc@WLSJFn@^zBfAxMfHjPtIj@^d@`@`@b@p@z@h@bARf@^rAPbAJdA?l@ExD?~CDvD@r@CbC?vBDl@Lt@Tx@b@xAJVr@vAf@bAfClDlItKb@h@ZXl@`@~BdAxBv@lCv@|MvDxFbBvDlAxBn@nHvBfAb@TPX^\\l@jAlDn@zBzBgAZMTAlBeAbD_B|BsA`GwC|BiA~@k@fD_CnDsBpE{BrB_ApI}DvIqEzP{Ir@m@j@[vLoGzAs@zAy@EKt@_@v@a@z@q@TKn@U\\MhDiBtM_HzOmIrGcD`EwBrA_A|Ao@xP{IxCaB`Ag@cCgPKi@Qk@Y{@OiA","summary":"100 Feet Rd","warnings":[],"waypoint_order":[],"overview_path":[{"lat":12.959570000000001,"lng":77.63008},{"lat":12.958570000000002,"lng":77.63053000000001},{"lat":12.958070000000001,"lng":77.63079},{"lat":12.957930000000001,"lng":77.63082},{"lat":12.957920000000001,"lng":77.63084},{"lat":12.957920000000001,"lng":77.63088},{"lat":12.957870000000002,"lng":77.63093},{"lat":12.957790000000001,"lng":77.63093},{"lat":12.957780000000001,"lng":77.63093},{"lat":12.956500000000002,"lng":77.63154},{"lat":12.956220000000002,"lng":77.63166000000001},{"lat":12.955760000000001,"lng":77.6319},{"lat":12.95386,"lng":77.63286000000001},{"lat":12.952010000000001,"lng":77.63381000000001},{"lat":12.95184,"lng":77.63387},{"lat":12.950870000000002,"lng":77.63435000000001},{"lat":12.950690000000002,"lng":77.63447000000001},{"lat":12.95062,"lng":77.63452000000001},{"lat":12.94702,"lng":77.63600000000001},{"lat":12.946840000000002,"lng":77.63605000000001},{"lat":12.94673,"lng":77.63604000000001},{"lat":12.94448,"lng":77.63495},{"lat":12.943270000000002,"lng":77.63433},{"lat":12.942540000000001,"lng":77.63397},{"lat":12.941980000000001,"lng":77.63368000000001},{"lat":12.941770000000002,"lng":77.63333},{"lat":12.94124,"lng":77.63226},{"lat":12.9411,"lng":77.63220000000001},{"lat":12.94101,"lng":77.63218},{"lat":12.94086,"lng":77.63216000000001},{"lat":12.94068,"lng":77.63218},{"lat":12.938930000000001,"lng":77.63282000000001},{"lat":12.938830000000001,"lng":77.63282000000001},{"lat":12.938790000000001,"lng":77.63282000000001},{"lat":12.93875,"lng":77.63281},{"lat":12.93865,"lng":77.63269000000001},{"lat":12.938550000000001,"lng":77.63273000000001},{"lat":12.938540000000001,"lng":77.63323000000001},{"lat":12.938540000000001,"lng":77.63367000000001},{"lat":12.938580000000002,"lng":77.63411},{"lat":12.938690000000001,"lng":77.63453000000001},{"lat":12.938820000000002,"lng":77.63488000000001},{"lat":12.939020000000001,"lng":77.63527},{"lat":12.93931,"lng":77.63567},{"lat":12.93956,"lng":77.63595000000001},{"lat":12.93978,"lng":77.63614000000001},{"lat":12.940180000000002,"lng":77.63642},{"lat":12.940880000000002,"lng":77.63687},{"lat":12.94443,"lng":77.63906},{"lat":12.945850000000002,"lng":77.63992},{"lat":12.94603,"lng":77.64004000000001},{"lat":12.945960000000001,"lng":77.64014},{"lat":12.945900000000002,"lng":77.6401},{"lat":12.945660000000002,"lng":77.63994000000001},{"lat":12.94504,"lng":77.63958000000001},{"lat":12.942670000000001,"lng":77.63810000000001},{"lat":12.939890000000002,"lng":77.63639},{"lat":12.939670000000001,"lng":77.63623000000001},{"lat":12.939480000000001,"lng":77.63606},{"lat":12.93931,"lng":77.63588},{"lat":12.939060000000001,"lng":77.63558},{"lat":12.93885,"lng":77.63524000000001},{"lat":12.93875,"lng":77.63504},{"lat":12.938590000000001,"lng":77.63462000000001},{"lat":12.938500000000001,"lng":77.63428},{"lat":12.938440000000002,"lng":77.63393},{"lat":12.938440000000002,"lng":77.6337},{"lat":12.93847,"lng":77.63277000000001},{"lat":12.93847,"lng":77.63197000000001},{"lat":12.938440000000002,"lng":77.63105},{"lat":12.93843,"lng":77.63079},{"lat":12.938450000000001,"lng":77.63013000000001},{"lat":12.938450000000001,"lng":77.62953},{"lat":12.93842,"lng":77.6293},{"lat":12.938350000000002,"lng":77.62903},{"lat":12.93824,"lng":77.62874000000001},{"lat":12.938060000000002,"lng":77.62829},{"lat":12.938,"lng":77.62817000000001},{"lat":12.937740000000002,"lng":77.62773},{"lat":12.93754,"lng":77.62739},{"lat":12.936860000000001,"lng":77.62652},{"lat":12.93519,"lng":77.62449000000001},{"lat":12.935010000000002,"lng":77.62428000000001},{"lat":12.934870000000002,"lng":77.62415},{"lat":12.934640000000002,"lng":77.62398},{"lat":12.934000000000001,"lng":77.62363},{"lat":12.933390000000001,"lng":77.62335},{"lat":12.932680000000001,"lng":77.62307000000001},{"lat":12.930290000000001,"lng":77.62215},{"lat":12.92904,"lng":77.62165},{"lat":12.928120000000002,"lng":77.62126},{"lat":12.927510000000002,"lng":77.62102},{"lat":12.92599,"lng":77.62042000000001},{"lat":12.925630000000002,"lng":77.62024000000001},{"lat":12.92552,"lng":77.62015000000001},{"lat":12.925390000000002,"lng":77.61999},{"lat":12.92524,"lng":77.61976},{"lat":12.92486,"lng":77.61889000000001},{"lat":12.92462,"lng":77.61827000000001},{"lat":12.924000000000001,"lng":77.61863000000001},{"lat":12.923860000000001,"lng":77.6187},{"lat":12.923750000000002,"lng":77.61871000000001},{"lat":12.923200000000001,"lng":77.61906},{"lat":12.92238,"lng":77.61954},{"lat":12.921750000000001,"lng":77.61996},{"lat":12.92046,"lng":77.62072},{"lat":12.919830000000001,"lng":77.62109000000001},{"lat":12.91951,"lng":77.62131000000001},{"lat":12.91867,"lng":77.62195000000001},{"lat":12.917790000000002,"lng":77.62253000000001},{"lat":12.91674,"lng":77.62315000000001},{"lat":12.916160000000001,"lng":77.62347000000001},{"lat":12.914470000000001,"lng":77.62442},{"lat":12.91275,"lng":77.62547},{"lat":12.90989,"lng":77.62721},{"lat":12.909630000000002,"lng":77.62744},{"lat":12.909410000000001,"lng":77.62758000000001},{"lat":12.907210000000001,"lng":77.62894},{"lat":12.90675,"lng":77.62920000000001},{"lat":12.90629,"lng":77.62949},{"lat":12.906320000000001,"lng":77.62955000000001},{"lat":12.90605,"lng":77.62971},{"lat":12.90577,"lng":77.62988},{"lat":12.905470000000001,"lng":77.63013000000001},{"lat":12.905360000000002,"lng":77.63019000000001},{"lat":12.905120000000002,"lng":77.6303},{"lat":12.90497,"lng":77.63037000000001},{"lat":12.90412,"lng":77.63090000000001},{"lat":12.90177,"lng":77.63234000000001},{"lat":12.899070000000002,"lng":77.63401},{"lat":12.89769,"lng":77.63483000000001},{"lat":12.89672,"lng":77.63543},{"lat":12.896300000000002,"lng":77.63575},{"lat":12.895830000000002,"lng":77.63599},{"lat":12.892980000000001,"lng":77.63773},{"lat":12.89221,"lng":77.63822},{"lat":12.89188,"lng":77.63842000000001},{"lat":12.89254,"lng":77.64118},{"lat":12.892600000000002,"lng":77.64139},{"lat":12.892690000000002,"lng":77.64161},{"lat":12.89282,"lng":77.64191000000001},{"lat":12.892900000000001,"lng":77.64228}]}],"status":"OK","request":{"origin":{"lat":12.959344204544353,"lng":77.62954098639307},"destination":"Myntra Designs Pvt Ltd, Bengaluru","travelMode":"DRIVING"}}
{"geocoded_waypoints":[{"geocoder_status":"OK","place_id":"ChIJsebk46wVrjsRxrQJpYyPMAc","types":["street_address"]},{"geocoder_status":"OK","place_id":"ChIJ____r1EUrjsRmL21xO2yuGI","types":["establishment","point_of_interest"]}],"routes":[{"bounds":{"south":12.924190000000001,"west":77.60494000000001,"north":12.934780000000002,"east":77.6336},"copyrights":"Map data ©2017 Google","legs":[{"distance":{"text":"4.3 km","value":4279},"duration":{"text":"18 mins","value":1065},"end_address":"Vaishnavi Summit, Ground Floor, 7th Main, 3rd Block, 80 Feet Road, Koramangala Industrial Layout, Bengaluru, Karnataka 560034, India","end_location":{"lat":12.9274886,"lng":77.63333339999997},"start_address":"15/2, 1st Main Rd, Bhavani Nagar, Suddagunte Palya, Bengaluru, Karnataka 560029, India","start_location":{"lat":12.9307268,"lng":77.60494070000004},"steps":[{"distance":{"text":"0.3 km","value":297},"duration":{"text":"2 mins","value":124},"end_location":{"lat":12.9313656,"lng":77.60735739999996},"polyline":{"points":"ap|mA{etxM?O?SUcEQ}BCe@AGAECCCCA?EAECIAMEEu@[@"},"start_location":{"lat":12.9307268,"lng":77.60494070000004},"travel_mode":"DRIVING","encoded_lat_lngs":"ap|mA{etxM?O?SUcEQ}BCe@AGAECCCCA?EAECIAMEEu@[@","path":[{"lat":12.93073,"lng":77.60494000000001},{"lat":12.93073,"lng":77.60502000000001},{"lat":12.93073,"lng":77.60512},{"lat":12.930840000000002,"lng":77.60610000000001},{"lat":12.930930000000002,"lng":77.60673000000001},{"lat":12.930950000000001,"lng":77.60692},{"lat":12.93096,"lng":77.60696},{"lat":12.93097,"lng":77.60699000000001},{"lat":12.930990000000001,"lng":77.60701},{"lat":12.93101,"lng":77.60703000000001},{"lat":12.93102,"lng":77.60703000000001},{"lat":12.93105,"lng":77.60704000000001},{"lat":12.931080000000001,"lng":77.60706},{"lat":12.931130000000001,"lng":77.60707000000001},{"lat":12.9312,"lng":77.6071},{"lat":12.931230000000001,"lng":77.60737},{"lat":12.931370000000001,"lng":77.60736}],"lat_lngs":[{"lat":12.93073,"lng":77.60494000000001},{"lat":12.93073,"lng":77.60502000000001},{"lat":12.93073,"lng":77.60512},{"lat":12.930840000000002,"lng":77.60610000000001},{"lat":12.930930000000002,"lng":77.60673000000001},{"lat":12.930950000000001,"lng":77.60692},{"lat":12.93096,"lng":77.60696},{"lat":12.93097,"lng":77.60699000000001},{"lat":12.930990000000001,"lng":77.60701},{"lat":12.93101,"lng":77.60703000000001},{"lat":12.93102,"lng":77.60703000000001},{"lat":12.93105,"lng":77.60704000000001},{"lat":12.931080000000001,"lng":77.60706},{"lat":12.931130000000001,"lng":77.60707000000001},{"lat":12.9312,"lng":77.6071},{"lat":12.931230000000001,"lng":77.60737},{"lat":12.931370000000001,"lng":77.60736}],"instructions":"Head <b>east</b> on <b>1st Main Rd</b> toward <b>Campus Road</b><div style=\"font-size:0.9em\">Pass by Eat and drink (on the right)</div>","maneuver":"","start_point":{"lat":12.9307268,"lng":77.60494070000004},"end_point":{"lat":12.9313656,"lng":77.60735739999996}},{"distance":{"text":"0.3 km","value":290},"duration":{"text":"2 mins","value":108},"end_location":{"lat":12.9309087,"lng":77.6098207},"maneuver":"turn-right","polyline":{"points":"at|mA_utxM@aC?E?C@C@ABA@ARI`@MFsB?E@E@c@@]B]?KFkA?E"},"start_location":{"lat":12.9313656,"lng":77.60735739999996},"travel_mode":"DRIVING","encoded_lat_lngs":"at|mA_utxM@aC?E?C@C@ABA@ARI`@MFsB?E@E@c@@]B]?KFkA?E","path":[{"lat":12.931370000000001,"lng":77.60736},{"lat":12.931360000000002,"lng":77.60801000000001},{"lat":12.931360000000002,"lng":77.60804},{"lat":12.931360000000002,"lng":77.60806000000001},{"lat":12.931350000000002,"lng":77.60808},{"lat":12.93134,"lng":77.60809},{"lat":12.931320000000001,"lng":77.60810000000001},{"lat":12.931310000000002,"lng":77.60811000000001},{"lat":12.931210000000002,"lng":77.60816000000001},{"lat":12.931040000000001,"lng":77.60823},{"lat":12.931000000000001,"lng":77.60881},{"lat":12.931000000000001,"lng":77.60884},{"lat":12.930990000000001,"lng":77.60887000000001},{"lat":12.930980000000002,"lng":77.60905000000001},{"lat":12.93097,"lng":77.6092},{"lat":12.930950000000001,"lng":77.60935},{"lat":12.930950000000001,"lng":77.60941000000001},{"lat":12.93091,"lng":77.60979},{"lat":12.93091,"lng":77.60982000000001}],"lat_lngs":[{"lat":12.931370000000001,"lng":77.60736},{"lat":12.931360000000002,"lng":77.60801000000001},{"lat":12.931360000000002,"lng":77.60804},{"lat":12.931360000000002,"lng":77.60806000000001},{"lat":12.931350000000002,"lng":77.60808},{"lat":12.93134,"lng":77.60809},{"lat":12.931320000000001,"lng":77.60810000000001},{"lat":12.931310000000002,"lng":77.60811000000001},{"lat":12.931210000000002,"lng":77.60816000000001},{"lat":12.931040000000001,"lng":77.60823},{"lat":12.931000000000001,"lng":77.60881},{"lat":12.931000000000001,"lng":77.60884},{"lat":12.930990000000001,"lng":77.60887000000001},{"lat":12.930980000000002,"lng":77.60905000000001},{"lat":12.93097,"lng":77.6092},{"lat":12.930950000000001,"lng":77.60935},{"lat":12.930950000000001,"lng":77.60941000000001},{"lat":12.93091,"lng":77.60979},{"lat":12.93091,"lng":77.60982000000001}],"instructions":"Turn <b>right</b> to stay on <b>1st Main Rd</b><div style=\"font-size:0.9em\">Pass by Sri Pattabi ramanjaneya Swamy Temple (on the right)</div>","start_point":{"lat":12.9313656,"lng":77.60735739999996},"end_point":{"lat":12.9309087,"lng":77.6098207}},{"distance":{"text":"0.4 km","value":431},"duration":{"text":"2 mins","value":124},"end_location":{"lat":12.934707,"lng":77.60966689999998},"maneuver":"turn-left","polyline":{"points":"eq|mAkduxMk@ICAqASsAS{AAo@B[Bk@P]LMBYDa@DK?wAJc@@}AL"},"start_location":{"lat":12.9309087,"lng":77.6098207},"travel_mode":"DRIVING","encoded_lat_lngs":"eq|mAkduxMk@ICAqASsAS{AAo@B[Bk@P]LMBYDa@DK?wAJc@@}AL","path":[{"lat":12.93091,"lng":77.60982000000001},{"lat":12.931130000000001,"lng":77.60987},{"lat":12.93115,"lng":77.60988},{"lat":12.931560000000001,"lng":77.60998000000001},{"lat":12.931980000000001,"lng":77.61008000000001},{"lat":12.932440000000001,"lng":77.61009},{"lat":12.932680000000001,"lng":77.61007000000001},{"lat":12.932820000000001,"lng":77.61005},{"lat":12.933040000000002,"lng":77.60996},{"lat":12.933190000000002,"lng":77.60989000000001},{"lat":12.93326,"lng":77.60987},{"lat":12.933390000000001,"lng":77.60984},{"lat":12.933560000000002,"lng":77.60981000000001},{"lat":12.933620000000001,"lng":77.60981000000001},{"lat":12.93406,"lng":77.60975},{"lat":12.93424,"lng":77.60974},{"lat":12.93471,"lng":77.60967000000001}],"lat_lngs":[{"lat":12.93091,"lng":77.60982000000001},{"lat":12.931130000000001,"lng":77.60987},{"lat":12.93115,"lng":77.60988},{"lat":12.931560000000001,"lng":77.60998000000001},{"lat":12.931980000000001,"lng":77.61008000000001},{"lat":12.932440000000001,"lng":77.61009},{"lat":12.932680000000001,"lng":77.61007000000001},{"lat":12.932820000000001,"lng":77.61005},{"lat":12.933040000000002,"lng":77.60996},{"lat":12.933190000000002,"lng":77.60989000000001},{"lat":12.93326,"lng":77.60987},{"lat":12.933390000000001,"lng":77.60984},{"lat":12.933560000000002,"lng":77.60981000000001},{"lat":12.933620000000001,"lng":77.60981000000001},{"lat":12.93406,"lng":77.60975},{"lat":12.93424,"lng":77.60974},{"lat":12.93471,"lng":77.60967000000001}],"instructions":"Turn <b>left</b> onto <b>Tavarekere Main Rd</b><div style=\"font-size:0.9em\">Pass by Forum Auto World (on the right in 400&nbsp;m)</div>","start_point":{"lat":12.9309087,"lng":77.6098207},"end_point":{"lat":12.934707,"lng":77.60966689999998}},{"distance":{"text":"0.6 km","value":563},"duration":{"text":"3 mins","value":190},"end_location":{"lat":12.9317052,"lng":77.61370639999996},"maneuver":"turn-right","polyline":{"points":"}h}mAmcuxMMWZi@fA{Az@iAr@eANUjDiFxBsCb@i@h@a@FGBE@C?G"},"start_location":{"lat":12.934707,"lng":77.60966689999998},"travel_mode":"DRIVING","encoded_lat_lngs":"}h}mAmcuxMMWZi@fA{Az@iAr@eANUjDiFxBsCb@i@h@a@FGBE@C?G","path":[{"lat":12.93471,"lng":77.60967000000001},{"lat":12.934780000000002,"lng":77.60979},{"lat":12.934640000000002,"lng":77.61},{"lat":12.934280000000001,"lng":77.61046},{"lat":12.933980000000002,"lng":77.61083},{"lat":12.933720000000001,"lng":77.61118},{"lat":12.93364,"lng":77.61129000000001},{"lat":12.932780000000001,"lng":77.61246000000001},{"lat":12.932170000000001,"lng":77.6132},{"lat":12.93199,"lng":77.61341},{"lat":12.931780000000002,"lng":77.61358000000001},{"lat":12.931740000000001,"lng":77.61362000000001},{"lat":12.93172,"lng":77.61365},{"lat":12.93171,"lng":77.61367000000001},{"lat":12.93171,"lng":77.61371000000001}],"lat_lngs":[{"lat":12.93471,"lng":77.60967000000001},{"lat":12.934780000000002,"lng":77.60979},{"lat":12.934640000000002,"lng":77.61},{"lat":12.934280000000001,"lng":77.61046},{"lat":12.933980000000002,"lng":77.61083},{"lat":12.933720000000001,"lng":77.61118},{"lat":12.93364,"lng":77.61129000000001},{"lat":12.932780000000001,"lng":77.61246000000001},{"lat":12.932170000000001,"lng":77.6132},{"lat":12.93199,"lng":77.61341},{"lat":12.931780000000002,"lng":77.61358000000001},{"lat":12.931740000000001,"lng":77.61362000000001},{"lat":12.93172,"lng":77.61365},{"lat":12.93171,"lng":77.61367000000001},{"lat":12.93171,"lng":77.61371000000001}],"instructions":"Turn <b>right</b> at KDP Bldg onto <b>Hosur Main Road</b><div style=\"font-size:0.9em\">Pass by Prestige Acropolis (on the left)</div>","start_point":{"lat":12.934707,"lng":77.60966689999998},"end_point":{"lat":12.9317052,"lng":77.61370639999996}},{"distance":{"text":"0.3 km","value":254},"duration":{"text":"1 min","value":60},"end_location":{"lat":12.9298284,"lng":77.61496869999996},"maneuver":"turn-slight-right","polyline":{"points":"ev|mAu|uxMDWrAs@tCsAhAm@|@m@"},"start_location":{"lat":12.9317052,"lng":77.61370639999996},"travel_mode":"DRIVING","encoded_lat_lngs":"ev|mAu|uxMDWrAs@tCsAhAm@|@m@","path":[{"lat":12.93171,"lng":77.61371000000001},{"lat":12.931680000000002,"lng":77.61383000000001},{"lat":12.931260000000002,"lng":77.61409},{"lat":12.930510000000002,"lng":77.61451000000001},{"lat":12.930140000000002,"lng":77.61474000000001},{"lat":12.92983,"lng":77.61497}],"lat_lngs":[{"lat":12.93171,"lng":77.61371000000001},{"lat":12.931680000000002,"lng":77.61383000000001},{"lat":12.931260000000002,"lng":77.61409},{"lat":12.930510000000002,"lng":77.61451000000001},{"lat":12.930140000000002,"lng":77.61474000000001},{"lat":12.92983,"lng":77.61497}],"instructions":"Slight <b>right</b> onto <b>Hosur Rd</b>","start_point":{"lat":12.9317052,"lng":77.61370639999996},"end_point":{"lat":12.9298284,"lng":77.61496869999996}},{"distance":{"text":"2.2 km","value":2150},"duration":{"text":"6 mins","value":385},"end_location":{"lat":12.9248561,"lng":77.63360179999995},"maneuver":"turn-slight-left","polyline":{"points":"mj|mAqdvxMJYDSDQDSJa@ZmApBwHBIjBoH|CoJHSXcAnAgEZiAp@yBDOrCwIjC_I~BwHd@sAJ]D[?K@W?CAcA?E?MEo@AMo@aHk@iG_@kD"},"start_location":{"lat":12.9298284,"lng":77.61496869999996},"travel_mode":"DRIVING","encoded_lat_lngs":"mj|mAqdvxMJYDSDQDSJa@ZmApBwHBIjBoH|CoJHSXcAnAgEZiAp@yBDOrCwIjC_I~BwHd@sAJ]D[?K@W?CAcA?E?MEo@AMo@aHk@iG_@kD","path":[{"lat":12.92983,"lng":77.61497},{"lat":12.929770000000001,"lng":77.61510000000001},{"lat":12.92974,"lng":77.6152},{"lat":12.929710000000002,"lng":77.61529},{"lat":12.929680000000001,"lng":77.61539},{"lat":12.929620000000002,"lng":77.61556},{"lat":12.929480000000002,"lng":77.61595000000001},{"lat":12.928910000000002,"lng":77.61751000000001},{"lat":12.92889,"lng":77.61756000000001},{"lat":12.928350000000002,"lng":77.61908000000001},{"lat":12.927560000000001,"lng":77.62092000000001},{"lat":12.927510000000002,"lng":77.62102},{"lat":12.927380000000001,"lng":77.62136000000001},{"lat":12.92698,"lng":77.62236},{"lat":12.92684,"lng":77.62273},{"lat":12.926590000000001,"lng":77.62334000000001},{"lat":12.92656,"lng":77.62342000000001},{"lat":12.925820000000002,"lng":77.62514},{"lat":12.925120000000001,"lng":77.62674000000001},{"lat":12.92448,"lng":77.62830000000001},{"lat":12.924290000000001,"lng":77.62872},{"lat":12.924230000000001,"lng":77.62887},{"lat":12.9242,"lng":77.62901000000001},{"lat":12.9242,"lng":77.62907000000001},{"lat":12.924190000000001,"lng":77.62919000000001},{"lat":12.924190000000001,"lng":77.62921},{"lat":12.9242,"lng":77.62955000000001},{"lat":12.9242,"lng":77.62958},{"lat":12.9242,"lng":77.62965000000001},{"lat":12.924230000000001,"lng":77.62989},{"lat":12.924240000000001,"lng":77.62996000000001},{"lat":12.92448,"lng":77.63141},{"lat":12.924700000000001,"lng":77.63274000000001},{"lat":12.92486,"lng":77.6336}],"lat_lngs":[{"lat":12.92983,"lng":77.61497},{"lat":12.929770000000001,"lng":77.61510000000001},{"lat":12.92974,"lng":77.6152},{"lat":12.929710000000002,"lng":77.61529},{"lat":12.929680000000001,"lng":77.61539},{"lat":12.929620000000002,"lng":77.61556},{"lat":12.929480000000002,"lng":77.61595000000001},{"lat":12.928910000000002,"lng":77.61751000000001},{"lat":12.92889,"lng":77.61756000000001},{"lat":12.928350000000002,"lng":77.61908000000001},{"lat":12.927560000000001,"lng":77.62092000000001},{"lat":12.927510000000002,"lng":77.62102},{"lat":12.927380000000001,"lng":77.62136000000001},{"lat":12.92698,"lng":77.62236},{"lat":12.92684,"lng":77.62273},{"lat":12.926590000000001,"lng":77.62334000000001},{"lat":12.92656,"lng":77.62342000000001},{"lat":12.925820000000002,"lng":77.62514},{"lat":12.925120000000001,"lng":77.62674000000001},{"lat":12.92448,"lng":77.62830000000001},{"lat":12.924290000000001,"lng":77.62872},{"lat":12.924230000000001,"lng":77.62887},{"lat":12.9242,"lng":77.62901000000001},{"lat":12.9242,"lng":77.62907000000001},{"lat":12.924190000000001,"lng":77.62919000000001},{"lat":12.924190000000001,"lng":77.62921},{"lat":12.9242,"lng":77.62955000000001},{"lat":12.9242,"lng":77.62958},{"lat":12.9242,"lng":77.62965000000001},{"lat":12.924230000000001,"lng":77.62989},{"lat":12.924240000000001,"lng":77.62996000000001},{"lat":12.92448,"lng":77.63141},{"lat":12.924700000000001,"lng":77.63274000000001},{"lat":12.92486,"lng":77.6336}],"instructions":"Slight <b>left</b> onto <b>Sarjapur Main Rd</b><div style=\"font-size:0.9em\">Pass by KIOCL Limited (on the right in 1.5&nbsp;km)</div>","start_point":{"lat":12.9298284,"lng":77.61496869999996},"end_point":{"lat":12.9248561,"lng":77.63360179999995}},{"distance":{"text":"0.3 km","value":294},"duration":{"text":"1 min","value":74},"end_location":{"lat":12.9274886,"lng":77.63333339999997},"maneuver":"turn-left","polyline":{"points":"kk{mA_yyxM]BaBLoADcENM@kBJ"},"start_location":{"lat":12.9248561,"lng":77.63360179999995},"travel_mode":"DRIVING","encoded_lat_lngs":"kk{mA_yyxM]BaBLoADcENM@kBJ","path":[{"lat":12.92486,"lng":77.6336},{"lat":12.92501,"lng":77.63358000000001},{"lat":12.925500000000001,"lng":77.63351},{"lat":12.9259,"lng":77.63348},{"lat":12.92688,"lng":77.63340000000001},{"lat":12.926950000000001,"lng":77.63339},{"lat":12.92749,"lng":77.63333}],"lat_lngs":[{"lat":12.92486,"lng":77.6336},{"lat":12.92501,"lng":77.63358000000001},{"lat":12.925500000000001,"lng":77.63351},{"lat":12.9259,"lng":77.63348},{"lat":12.92688,"lng":77.63340000000001},{"lat":12.926950000000001,"lng":77.63339},{"lat":12.92749,"lng":77.63333}],"instructions":"Turn <b>left</b> onto <b>80 Feet Main Rd</b>/<b>Mahatyagi Laksmidevi Rd</b><div style=\"font-size:0.9em\">Pass by Sandeepani (on the left)</div><div style=\"font-size:0.9em\">Destination will be on the left</div>","start_point":{"lat":12.9248561,"lng":77.63360179999995},"end_point":{"lat":12.9274886,"lng":77.63333339999997}}],"traffic_speed_entry":[],"via_waypoint":[],"via_waypoints":[]}],"overview_polyline":"ap|mA{etxM?c@g@aIEm@EIQIWGEu@[@@gC@GZO`@MFsB@KFkBFqAo@KeDg@{AAkAFiA^g@Hm@D{BL}ALMWbBeCnBoCNUjDiFxBsCb@i@h@a@JM@KDWrAs@~EaC|@m@JYJe@Pu@|F_UfDcKhBkGlAcExCgJjGwRp@qBFcAAiAE}@q@oHkAuL_CPsGTyBL","summary":"Sarjapur Main Rd","warnings":[],"waypoint_order":[],"overview_path":[{"lat":12.93073,"lng":77.60494000000001},{"lat":12.93073,"lng":77.60512},{"lat":12.930930000000002,"lng":77.60673000000001},{"lat":12.93096,"lng":77.60696},{"lat":12.930990000000001,"lng":77.60701},{"lat":12.931080000000001,"lng":77.60706},{"lat":12.9312,"lng":77.6071},{"lat":12.931230000000001,"lng":77.60737},{"lat":12.931370000000001,"lng":77.60736},{"lat":12.931360000000002,"lng":77.60804},{"lat":12.931350000000002,"lng":77.60808},{"lat":12.931210000000002,"lng":77.60816000000001},{"lat":12.931040000000001,"lng":77.60823},{"lat":12.931000000000001,"lng":77.60881},{"lat":12.930990000000001,"lng":77.60887000000001},{"lat":12.930950000000001,"lng":77.60941000000001},{"lat":12.93091,"lng":77.60982000000001},{"lat":12.93115,"lng":77.60988},{"lat":12.931980000000001,"lng":77.61008000000001},{"lat":12.932440000000001,"lng":77.61009},{"lat":12.932820000000001,"lng":77.61005},{"lat":12.933190000000002,"lng":77.60989000000001},{"lat":12.933390000000001,"lng":77.60984},{"lat":12.933620000000001,"lng":77.60981000000001},{"lat":12.93424,"lng":77.60974},{"lat":12.93471,"lng":77.60967000000001},{"lat":12.934780000000002,"lng":77.60979},{"lat":12.934280000000001,"lng":77.61046},{"lat":12.933720000000001,"lng":77.61118},{"lat":12.93364,"lng":77.61129000000001},{"lat":12.932780000000001,"lng":77.61246000000001},{"lat":12.932170000000001,"lng":77.6132},{"lat":12.93199,"lng":77.61341},{"lat":12.931780000000002,"lng":77.61358000000001},{"lat":12.93172,"lng":77.61365},{"lat":12.93171,"lng":77.61371000000001},{"lat":12.931680000000002,"lng":77.61383000000001},{"lat":12.931260000000002,"lng":77.61409},{"lat":12.930140000000002,"lng":77.61474000000001},{"lat":12.92983,"lng":77.61497},{"lat":12.929770000000001,"lng":77.61510000000001},{"lat":12.929710000000002,"lng":77.61529},{"lat":12.929620000000002,"lng":77.61556},{"lat":12.928350000000002,"lng":77.61908000000001},{"lat":12.927510000000002,"lng":77.62102},{"lat":12.92698,"lng":77.62236},{"lat":12.926590000000001,"lng":77.62334000000001},{"lat":12.925820000000002,"lng":77.62514},{"lat":12.92448,"lng":77.62830000000001},{"lat":12.924230000000001,"lng":77.62887},{"lat":12.924190000000001,"lng":77.62921},{"lat":12.9242,"lng":77.62958},{"lat":12.924230000000001,"lng":77.62989},{"lat":12.92448,"lng":77.63141},{"lat":12.92486,"lng":77.6336},{"lat":12.925500000000001,"lng":77.63351},{"lat":12.92688,"lng":77.63340000000001},{"lat":12.92749,"lng":77.63333}]}],"status":"OK","request":{"origin":{"lat":12.930642973150041,"lng":77.60494107218301},"destination":"Flipkart Internet Private Limited, Vaishnavi Summit, Ground Floor, 7th Main, 3rd Block, 80 Feet Road, Koramangala Industrial Layout, Koramangala 1A Block, Koramangala 3 Block, Koramangala, Bengaluru","travelMode":"DRIVING"}}
{"geocoded_waypoints":[{"geocoder_status":"OK","place_id":"ChIJH7w-560TrjsR1qglHcfNLOU","types":["route"]},{"geocoder_status":"OK","place_id":"ChIJtdVsDqwTrjsR0POt26pbLc0","types":["establishment","point_of_interest"]}],"routes":[{"bounds":{"south":12.933320000000002,"west":77.69431,"north":12.936710000000001,"east":77.69515000000001},"copyrights":"Map data ©2017 Google","legs":[{"distance":{"text":"0.5 km","value":484},"duration":{"text":"3 mins","value":174},"end_address":"Pardhnani Wilshire, Cessna Business Park, Embassy Tech Square Main Rd, Kaverappa Layout, Kadubeesanahalli, Bengaluru, Karnataka 560103, India","end_location":{"lat":12.9335064,"lng":77.69495979999999},"start_address":"Embassy Tech Square Main Rd, Kaverappa Layout, Kadubeesanahalli, Bengaluru, Karnataka 560103, India","start_location":{"lat":12.9367112,"lng":77.69431310000004},"steps":[{"distance":{"text":"0.4 km","value":424},"duration":{"text":"2 mins","value":110},"end_location":{"lat":12.9334979,"lng":77.69504010000003},"polyline":{"points":"mu}mAmteyM@KB_@@EBg@D[BMFIHILGLEN?PAF@J?f@BT?X?@?b@?d@BV?Z?Z?^@J?T?J@P?lCDX@J?"},"start_location":{"lat":12.9367112,"lng":77.69431310000004},"travel_mode":"DRIVING","encoded_lat_lngs":"mu}mAmteyM@KB_@@EBg@D[BMFIHILGLEN?PAF@J?f@BT?X?@?b@?d@BV?Z?Z?^@J?T?J@P?lCDX@J?","path":[{"lat":12.936710000000001,"lng":77.69431},{"lat":12.936700000000002,"lng":77.69437},{"lat":12.93668,"lng":77.69453},{"lat":12.936670000000001,"lng":77.69456000000001},{"lat":12.93665,"lng":77.69476},{"lat":12.936620000000001,"lng":77.6949},{"lat":12.9366,"lng":77.69497000000001},{"lat":12.936560000000002,"lng":77.69502},{"lat":12.93651,"lng":77.69507},{"lat":12.936440000000001,"lng":77.69511},{"lat":12.936370000000002,"lng":77.69514000000001},{"lat":12.936290000000001,"lng":77.69514000000001},{"lat":12.936200000000001,"lng":77.69515000000001},{"lat":12.936160000000001,"lng":77.69514000000001},{"lat":12.936100000000001,"lng":77.69514000000001},{"lat":12.9359,"lng":77.69512},{"lat":12.93579,"lng":77.69512},{"lat":12.93566,"lng":77.69512},{"lat":12.93565,"lng":77.69512},{"lat":12.93547,"lng":77.69512},{"lat":12.93528,"lng":77.69510000000001},{"lat":12.935160000000002,"lng":77.69510000000001},{"lat":12.935020000000002,"lng":77.69510000000001},{"lat":12.934880000000001,"lng":77.69510000000001},{"lat":12.93472,"lng":77.69509000000001},{"lat":12.934660000000001,"lng":77.69509000000001},{"lat":12.934550000000002,"lng":77.69509000000001},{"lat":12.93449,"lng":77.69508},{"lat":12.934400000000002,"lng":77.69508},{"lat":12.93369,"lng":77.69505000000001},{"lat":12.933560000000002,"lng":77.69504},{"lat":12.9335,"lng":77.69504}],"lat_lngs":[{"lat":12.936710000000001,"lng":77.69431},{"lat":12.936700000000002,"lng":77.69437},{"lat":12.93668,"lng":77.69453},{"lat":12.936670000000001,"lng":77.69456000000001},{"lat":12.93665,"lng":77.69476},{"lat":12.936620000000001,"lng":77.6949},{"lat":12.9366,"lng":77.69497000000001},{"lat":12.936560000000002,"lng":77.69502},{"lat":12.93651,"lng":77.69507},{"lat":12.936440000000001,"lng":77.69511},{"lat":12.936370000000002,"lng":77.69514000000001},{"lat":12.936290000000001,"lng":77.69514000000001},{"lat":12.936200000000001,"lng":77.69515000000001},{"lat":12.936160000000001,"lng":77.69514000000001},{"lat":12.936100000000001,"lng":77.69514000000001},{"lat":12.9359,"lng":77.69512},{"lat":12.93579,"lng":77.69512},{"lat":12.93566,"lng":77.69512},{"lat":12.93565,"lng":77.69512},{"lat":12.93547,"lng":77.69512},{"lat":12.93528,"lng":77.69510000000001},{"lat":12.935160000000002,"lng":77.69510000000001},{"lat":12.935020000000002,"lng":77.69510000000001},{"lat":12.934880000000001,"lng":77.69510000000001},{"lat":12.93472,"lng":77.69509000000001},{"lat":12.934660000000001,"lng":77.69509000000001},{"lat":12.934550000000002,"lng":77.69509000000001},{"lat":12.93449,"lng":77.69508},{"lat":12.934400000000002,"lng":77.69508},{"lat":12.93369,"lng":77.69505000000001},{"lat":12.933560000000002,"lng":77.69504},{"lat":12.9335,"lng":77.69504}],"instructions":"Head <b>east</b> on <b>Embassy Tech Square Main Rd</b><div style=\"font-size:0.9em\">Restricted usage road</div><div style=\"font-size:0.9em\">Pass by Aloft Bengaluru Cessna Business Park (on the left)</div>","maneuver":"","start_point":{"lat":12.9367112,"lng":77.69431310000004},"end_point":{"lat":12.9334979,"lng":77.69504010000003}},{"distance":{"text":"60 m","value":60},"duration":{"text":"1 min","value":64},"end_location":{"lat":12.9335064,"lng":77.69495979999999},"polyline":{"points":"ka}mA_yeyM@A@A@A@??A@?@?@??A@?@?@??@@?@?@??@@?@@@??@@@?@@??@?@?@?@?@?@?@?@?@A??@A@A@A@A??@A?A?A??@A?A??AA?A?A?AAA??AA??AA??AAA?AAA"},"start_location":{"lat":12.9334979,"lng":77.69504010000003},"travel_mode":"DRIVING","encoded_lat_lngs":"ka}mA_yeyM@A@A@A@??A@?@?@??A@?@?@??@@?@?@??@@?@@@??@@@?@@??@?@?@?@?@?@?@?@?@A??@A@A@A@A??@A?A?A??@A?A??AA?A?A?AAA??AA??AA??AAA?AAA","path":[{"lat":12.9335,"lng":77.69504},{"lat":12.93349,"lng":77.69505000000001},{"lat":12.933480000000001,"lng":77.69506000000001},{"lat":12.933470000000002,"lng":77.69507},{"lat":12.93346,"lng":77.69507},{"lat":12.93346,"lng":77.69508},{"lat":12.93345,"lng":77.69508},{"lat":12.933440000000001,"lng":77.69508},{"lat":12.933430000000001,"lng":77.69508},{"lat":12.933430000000001,"lng":77.69509000000001},{"lat":12.933420000000002,"lng":77.69509000000001},{"lat":12.93341,"lng":77.69509000000001},{"lat":12.9334,"lng":77.69509000000001},{"lat":12.9334,"lng":77.69508},{"lat":12.933390000000001,"lng":77.69508},{"lat":12.933380000000001,"lng":77.69508},{"lat":12.933370000000002,"lng":77.69508},{"lat":12.933370000000002,"lng":77.69507},{"lat":12.93336,"lng":77.69507},{"lat":12.93335,"lng":77.69506000000001},{"lat":12.933340000000001,"lng":77.69506000000001},{"lat":12.933340000000001,"lng":77.69505000000001},{"lat":12.933330000000002,"lng":77.69504},{"lat":12.933330000000002,"lng":77.69503},{"lat":12.933320000000002,"lng":77.69503},{"lat":12.933320000000002,"lng":77.69502},{"lat":12.933320000000002,"lng":77.69501000000001},{"lat":12.933320000000002,"lng":77.69500000000001},{"lat":12.933320000000002,"lng":77.69499},{"lat":12.933320000000002,"lng":77.69498},{"lat":12.933320000000002,"lng":77.69497000000001},{"lat":12.933320000000002,"lng":77.69496000000001},{"lat":12.933320000000002,"lng":77.69495},{"lat":12.933320000000002,"lng":77.69494},{"lat":12.933330000000002,"lng":77.69494},{"lat":12.933330000000002,"lng":77.69493},{"lat":12.933340000000001,"lng":77.69492000000001},{"lat":12.93335,"lng":77.69491000000001},{"lat":12.93336,"lng":77.6949},{"lat":12.933370000000002,"lng":77.6949},{"lat":12.933370000000002,"lng":77.69489},{"lat":12.933380000000001,"lng":77.69489},{"lat":12.933390000000001,"lng":77.69489},{"lat":12.9334,"lng":77.69489},{"lat":12.9334,"lng":77.69488000000001},{"lat":12.93341,"lng":77.69488000000001},{"lat":12.933420000000002,"lng":77.69488000000001},{"lat":12.933420000000002,"lng":77.69489},{"lat":12.933430000000001,"lng":77.69489},{"lat":12.933440000000001,"lng":77.69489},{"lat":12.93345,"lng":77.69489},{"lat":12.93346,"lng":77.6949},{"lat":12.933470000000002,"lng":77.6949},{"lat":12.933470000000002,"lng":77.69491000000001},{"lat":12.933480000000001,"lng":77.69491000000001},{"lat":12.933480000000001,"lng":77.69492000000001},{"lat":12.93349,"lng":77.69492000000001},{"lat":12.93349,"lng":77.69493},{"lat":12.9335,"lng":77.69494},{"lat":12.9335,"lng":77.69495},{"lat":12.933510000000002,"lng":77.69496000000001}],"lat_lngs":[{"lat":12.9335,"lng":77.69504},{"lat":12.93349,"lng":77.69505000000001},{"lat":12.933480000000001,"lng":77.69506000000001},{"lat":12.933470000000002,"lng":77.69507},{"lat":12.93346,"lng":77.69507},{"lat":12.93346,"lng":77.69508},{"lat":12.93345,"lng":77.69508},{"lat":12.933440000000001,"lng":77.69508},{"lat":12.933430000000001,"lng":77.69508},{"lat":12.933430000000001,"lng":77.69509000000001},{"lat":12.933420000000002,"lng":77.69509000000001},{"lat":12.93341,"lng":77.69509000000001},{"lat":12.9334,"lng":77.69509000000001},{"lat":12.9334,"lng":77.69508},{"lat":12.933390000000001,"lng":77.69508},{"lat":12.933380000000001,"lng":77.69508},{"lat":12.933370000000002,"lng":77.69508},{"lat":12.933370000000002,"lng":77.69507},{"lat":12.93336,"lng":77.69507},{"lat":12.93335,"lng":77.69506000000001},{"lat":12.933340000000001,"lng":77.69506000000001},{"lat":12.933340000000001,"lng":77.69505000000001},{"lat":12.933330000000002,"lng":77.69504},{"lat":12.933330000000002,"lng":77.69503},{"lat":12.933320000000002,"lng":77.69503},{"lat":12.933320000000002,"lng":77.69502},{"lat":12.933320000000002,"lng":77.69501000000001},{"lat":12.933320000000002,"lng":77.69500000000001},{"lat":12.933320000000002,"lng":77.69499},{"lat":12.933320000000002,"lng":77.69498},{"lat":12.933320000000002,"lng":77.69497000000001},{"lat":12.933320000000002,"lng":77.69496000000001},{"lat":12.933320000000002,"lng":77.69495},{"lat":12.933320000000002,"lng":77.69494},{"lat":12.933330000000002,"lng":77.69494},{"lat":12.933330000000002,"lng":77.69493},{"lat":12.933340000000001,"lng":77.69492000000001},{"lat":12.93335,"lng":77.69491000000001},{"lat":12.93336,"lng":77.6949},{"lat":12.933370000000002,"lng":77.6949},{"lat":12.933370000000002,"lng":77.69489},{"lat":12.933380000000001,"lng":77.69489},{"lat":12.933390000000001,"lng":77.69489},{"lat":12.9334,"lng":77.69489},{"lat":12.9334,"lng":77.69488000000001},{"lat":12.93341,"lng":77.69488000000001},{"lat":12.933420000000002,"lng":77.69488000000001},{"lat":12.933420000000002,"lng":77.69489},{"lat":12.933430000000001,"lng":77.69489},{"lat":12.933440000000001,"lng":77.69489},{"lat":12.93345,"lng":77.69489},{"lat":12.93346,"lng":77.6949},{"lat":12.933470000000002,"lng":77.6949},{"lat":12.933470000000002,"lng":77.69491000000001},{"lat":12.933480000000001,"lng":77.69491000000001},{"lat":12.933480000000001,"lng":77.69492000000001},{"lat":12.93349,"lng":77.69492000000001},{"lat":12.93349,"lng":77.69493},{"lat":12.9335,"lng":77.69494},{"lat":12.9335,"lng":77.69495},{"lat":12.933510000000002,"lng":77.69496000000001}],"instructions":"Enter the roundabout<div style=\"font-size:0.9em\">Destination will be on the left</div>","maneuver":"","start_point":{"lat":12.9334979,"lng":77.69504010000003},"end_point":{"lat":12.9335064,"lng":77.69495979999999}}],"traffic_speed_entry":[],"via_waypoint":[],"via_waypoints":[]}],"overview_polyline":"mu}mAmteyMJyAHi@PSZM`@ApADtEDrFHJGN@FH?NIHM?KIAC","summary":"Embassy Tech Square Main Rd","warnings":[],"waypoint_order":[],"overview_path":[{"lat":12.936710000000001,"lng":77.69431},{"lat":12.93665,"lng":77.69476},{"lat":12.9366,"lng":77.69497000000001},{"lat":12.93651,"lng":77.69507},{"lat":12.936370000000002,"lng":77.69514000000001},{"lat":12.936200000000001,"lng":77.69515000000001},{"lat":12.93579,"lng":77.69512},{"lat":12.93472,"lng":77.69509000000001},{"lat":12.9335,"lng":77.69504},{"lat":12.933440000000001,"lng":77.69508},{"lat":12.93336,"lng":77.69507},{"lat":12.933320000000002,"lng":77.69502},{"lat":12.933320000000002,"lng":77.69494},{"lat":12.933370000000002,"lng":77.69489},{"lat":12.933440000000001,"lng":77.69489},{"lat":12.9335,"lng":77.69494},{"lat":12.933510000000002,"lng":77.69496000000001}]}],"status":"OK","request":{"origin":{"lat":12.937102064135152,"lng":77.69436957927462},"destination":"Flipkart, Pardhnani Wilshire, Cessna Business Park, Embassy Tech Square Main Rd, Kaverappa Layout, Kadubeesanahalli, Bengaluru","travelMode":"DRIVING"}}
